[
  {
    "key": "group_postgalery",
    "title": "Regatta\/Event mit Post verknüpfen",
    "fields": [
      {
        "key": "field_postgalery",
        "label": "Galerien",
        "name": "galerie",
        "type": "relationship",
        "post_type": [
          "gallery"
        ],
        "filters": [
          "search"
        ],
        "return_format": "object"
      },
      {
        "key": "field_postresult",
        "label": "Regatta",
        "name": "result",
        "type": "relationship",
        "instructions": "Nur verwenden wenn die CSV eingepflegt wurde.",
        "post_type": [
          "result"
        ],
        "filters": [
          "search"
        ],
        "return_format": "object"
      }
    ],
    "location": [
      [
        {
          "param": "post_type",
          "operator": "==",
          "value": "post"
        }
      ]
    ],
    "active": true
  }
]
